﻿sep=,
"Time","{job=""kafka"", topic=""ELKH""}"
1641987540000,0
1641987570000,0
1641987600000,159713.33121214525
1641987630000,462431.32084239763
1641987660000,815147.7170042513
1641987690000,1108217.1657539683
1641987720000,1398814.0442252122
1641987750000,1677355.3097469697
1641987780000,1961632.3279829912
1641987810000,2246958.526947242
1641987840000,2568047.995424821
1641987870000,2841610.267557619
1641987900000,2861774.0292843827
1641987930000,2815549.040903724
1641987960000,2776013.464020249
1641987990000,2755675.2587264366
1641988020000,2726221.189473684
1641988050000,2700648.0030547725
1641988080000,2695071.130111956
1641988110000,2672962.3751439303
1641988140000,2625342.6470077345
1641988170000,2643051.279717886
1641988200000,2690424.2555614086
1641988230000,2708692.9789473685
1641988260000,2724765.9367771484
1641988290000,2736743.6874732454
1641988320000,2737908.0611234563
1641988350000,2773773.2140350877
1641988380000,2823984.921459088
1641988410000,2792301.720359686
1641988440000,2797541.3964912277
1641988470000,2782265.9702127813
1641988500000,2779256.7087719296
1641988530000,2772222.687541863
1641988560000,2768481.6065194034
1641988590000,2747127.6640735115
1641988620000,2730921.7812541868
1641988650000,2715351.0412933985
1641988680000,2602374.7921763994
1641988710000,2364774.9918064103
1641988740000,2072687.6105263159
1641988770000,1776395.035087719
1641988800000,1489387.222251766
1641988830000,1189092.2631578948
1641988860000,909331.413051309
1641988890000,635707.8842105264
1641988920000,372065.9204422852
1641988950000,139869.39138469903
1641988980000,8526.4758496598
1641989010000,0

