﻿sep=,
"Time","{job=""kafka"", topic=""ELKH""}"
1641984030000,349963.33644222224
1641984060000,697623.8894778928
1641984090000,1015539.9206425123
1641984120000,1308377.7876125397
1641984150000,1602103.6062865432
1641984180000,1901655.7151551484
1641984210000,2201170.47668948
1641984240000,2501651.2927522217
1641984270000,2817995.463427598
1641984300000,3111870.723137357
1641984330000,3111571.4230368757
1641984360000,3149171.384812829
1641984390000,3202411.4315789468
1641984420000,3251243.907557311
1641984450000,3316723.5798493847
1641984480000,3367222.18365896
1641984510000,3431919.6462914194
1641984540000,3478560.129824561
1641984570000,3522408.30483914
1641984600000,3540448.8810247625
1641984630000,3540749.9970145095
1641984660000,3519844.0704019843
1641984690000,3513858.7685925607
1641984720000,3472362.796931122
1641984750000,3515299.865994007
1641984780000,3521427.8268811894
1641984810000,3514819.047411289
1641984840000,3521100.124422163
1641984870000,3516349.8723966894
1641984900000,3511277.235831993
1641984930000,3425510.9338603755
1641984960000,3497058.0916383285
1641984990000,3506829.4578413903
1641985020000,3492943.3684210526
1641985050000,3387167.3419365245
1641985080000,3457379.3716203654
1641985110000,3455494.207009763
1641985140000,3448542.8815313717
1641985170000,3370243.5789473685
1641985200000,3430005.6170632364
1641985230000,3429358.844388442
1641985260000,3360805.9380673915
1641985290000,3338911.712779264
1641985320000,3437205.3881005896
1641985350000,3441329.6701754383
1641985380000,3363312.178947368
1641985410000,3345761.5402011187
1641985440000,3329150.654949755
1641985470000,3398570.931452233
1641985500000,3411536.125807492
1641985530000,3393690.0421052626
1641985560000,3496519.2736842106
1641985590000,3418563.543859649
1641985620000,3396095.887719298
1641985650000,3398388.8461448844
1641985680000,3386078.0300600473
1641985710000,3360904.3977134298
1641985740000,3313256.370566882
1641985770000,3194309.3080168804
1641985800000,3010305.495074546
1641985830000,2660995.371920345
1641985860000,2287699.467938702
1641985890000,1930602.2151444843
1641985920000,1650872.0324369068
1641985950000,1249626.7325059585
1641985980000,959086.1009902043
1641986010000,639593.0402577908
1641986040000,394789.75881035696
1641986070000,181658.0387825974
1641986100000,23913.2288300357
1641986130000,0

