﻿sep=,
"Time","{job=""kafka"", topic=""ELKH""}"
1641989370000,0
1641989400000,0
1641989430000,131476.1052631579
1641989460000,559366.2776508806
1641989490000,893385.5488139107
1641989520000,1230522.520958419
1641989550000,1592421.2501709259
1641989580000,1943591.1062996164
1641989610000,2284690.3594556767
1641989640000,2629560.000229083
1641989670000,2980163.502987032
1641989700000,3327639.851529954
1641989730000,3458745.8475480126
1641989760000,3384193.144019771
1641989790000,3313438.8271566206
1641989820000,3253531.999248554
1641989850000,3154044.101509785
1641989880000,3091171.4589164807
1641989910000,3028296.218978521
1641989940000,2966696.1164139654
1641989970000,2892447.1277534356
1641990000000,2835846.662945053
1641990030000,2852422.672966692
1641990060000,2868173.52547658
1641990090000,2882210.7299607997
1641990120000,2923213.102399073
1641990150000,2991497.52918201
1641990180000,3042541.3472962766
1641990210000,3123262.817543859
1641990240000,3173607.150877193
1641990270000,3229194.455811213
1641990300000,3270489.733333333
1641990330000,3332341.3134658365
1641990360000,3401610.22974661
1641990390000,3431475.3962888797
1641990420000,3430859.932696713
1641990450000,3435169.60359856
1641990480000,3429631.118529998
1641990510000,3414610.8877192982
1641990540000,3426957.2175438595
1641990570000,3427827.6843778724
1641990600000,3436507.923319584
1641990630000,3432810.364853604
1641990660000,3403799.8593573417
1641990690000,3409467.9265564773
1641990720000,3405760.697379877
1641990750000,3381023.1290679146
1641990780000,3382692.3401654274
1641990810000,3380640.2489620214
1641990840000,3382938.130435711
1641990870000,3365179.559434808
1641990900000,3363645.601292088
1641990930000,3360973.7833074112
1641990960000,3372466.5059056757
1641990990000,3379744.832509849
1641991020000,3386038.643304426
1641991050000,3382588.277212398
1641991080000,3375072.2175438595
1641991110000,3370751.037412143
1641991140000,3365631.140195433
1641991170000,3350824.5194696845
1641991200000,3333100.972580339
1641991230000,3331750.53144785
1641991260000,3316491.219942837
1641991290000,3293747.8246419565
1641991320000,3272213.0561403506
1641991350000,3266420.4496849454
1641991380000,3261944.4464633535
1641991410000,3261746.186861752
1641991440000,3261811.747368421
1641991470000,3275531.1230139746
1641991500000,3282844.0667714113
1641991530000,3284567.6495888503
1641991560000,3295978.767194426
1641991590000,3309175.8093219097
1641991620000,3323040.335268728
1641991650000,3328513.382367941
1641991680000,3336606.550956381
1641991710000,3324489.5163451945
1641991740000,3315354.5476934887
1641991770000,3264387.081518541
1641991800000,3220396.4674250386
1641991830000,3163221.213769038
1641991860000,3114017.044537871
1641991890000,3052524.2826720206
1641991920000,2985898.4963175757
1641991950000,2943930.2280701753
1641991980000,2892410.155427203
1641992010000,2847232.379283322
1641992040000,2825585.294118959
1641992070000,2819545.4666666663
1641992100000,2800410.710766404
1641992130000,2806029.1479832516
1641992160000,2816240.2947368417
1641992190000,2825728.229914508
1641992220000,2766996.3397114337
1641992250000,2522829.647419187
1641992280000,2221947.6976950634
1641992310000,1920333.2716334977
1641992340000,1621897.3450286551
1641992370000,1342515.0589059421
1641992400000,1048277.1656227417
1641992430000,789328.5545483868
1641992460000,437027.2877192982
1641992490000,129115.87655696689
1641992520000,0

